[
 {
   "id":"1",
   "Membership_No" : "03-00156-00",
   "Name":"Blessing Bratt",
   "Cover":"Student",
   "Gender":"Male",
   "Institution":"Chancellor College"
 },
 {
   "id":"2",
   "Membership_No" : "01-12456-12",
   "Name":"Dr. Kelvin Lindeof",
   "Cover":"Staff",
   "Gender":"Male",
   "Institution":"Polytechnic University"
 },
 {
   "id":"3",
   "Membership_No" : "00-30120-33",
   "Name":"Grace Jellof",
   "Cover":"Staff",
   "Gender":"Female",
   "Institution":"College of Medicine"
 },
 {
   "id":"4",
   "Membership_No" : "03-14477-00",
   "Name":"John Joseph",
   "Cover":"Student",
   "Gender":"Male",
   "Institution":"Chancellor College"
 },
 {
   "id":"5",
   "Membership_No" : "03-14578-00",
   "Name":"Liny Greet",
   "Cover":"Student",
   "Gender":"Female",
   "Institution":"Chancellor College"
 },
 {
   "id":"6",
   "Membership_No" : "01-45218-12",
   "Name":"Dr. Lony Trevor",
   "Cover":"Staff",
   "Gender":"Male",
   "Institution":"Polytechnic University"
 },
 {
   "id":"7",
   "Membership_No" : "03-54812-00",
   "Name":"Danniel Messi",
   "Cover":"Student",
   "Gender":"Male",
   "Institution":"Chancellor College"
 },
 {
   "id":"8",
   "Membership_No" : "03-14565-00",
   "Name":"Gretiny Predal",
   "Cover":"Student",
   "Gender":"Female",
   "Institution":"Chancellor College"
 },
 {
   "id":"9",
   "Membership_No" : "01-45790-02",
   "Name":"James Lixil",
   "Cover":"Staff",
   "Gender":"Male",
   "Institution":"Polytechnic University"
 },
 {
   "id":"10",
   "Membership_No" : "03-78842-00",
   "Name":"Derty Yuilo",
   "Cover":"Student",
   "Gender":"Male",
   "Institution":"Chancellor College"
 },
 {
   "id":"11",
   "Membership_No" : "03-47510-10",
   "Name":"Milliam Lindeof",
   "Cover":"Staff",
   "Gender":"Female",
   "Institution":"Chancellor College"
 },
 {
   "id":"12",
   "Membership_No" : "04-12056-42",
   "Name":"Dr. Lopo Jegwe",
   "Cover":"Staff",
   "Gender":"Male",
   "Institution":"Bunda College"
 },
 {
   "id":"13",
   "Membership_No" : "04-10004-40",
   "Name":"Mlimi Khasu",
   "Cover":"Student",
   "Gender":"Male",
   "Institution":"Bunda College"
 },
 {
   "id":"14",
   "Membership_No" : "04-45000-24",
   "Name":"Joyce Heely",
   "Cover":"Student",
   "Gender":"Female",
   "Institution":"Bunda College"
 },
 {
   "id":"15",
   "Membership_No" : "01-12400-12",
   "Name":"Kelvin Phiri",
   "Cover":"Student",
   "Gender":"Male",
   "Institution":"Polytechnic University"
 },
 {
   "id":"16",
   "Membership_No" : "01-00005-12",
   "Name":"Weetny Dandy",
   "Cover":"Student",
   "Gender":"Female",
   "Institution":"Polytechnic University"
 }
]
