{
    "chart": {
        "caption": "STD Cases per Location",
        "theme": "fint",
        "exportEnabled": "1",
        "exportMode": "client",
        "yAxisName": "Number of Members",
        "showBorder": "1",
        "borderColor": "#2196f3 "
    },
    "data": [
        {
            "label": "Chikanda",
            "value": "91"
        },
        {
            "label": "Nandolo",
            "value": "27"
        },
        {
            "label": "Old-Naisi",
            "value": "40"
        },
        {
            "label": "Domasi",
            "value": "22"
        },
        {
            "label": "Chinamwali",
            "value": "32"
        },
        {
            "label": "Campus",
            "value": "124"
        },
        {
            "label": "Matawale",
            "value": "54"
        }
    ]
}
